<?xml version="1.0" encoding="UTF-8" standalone="no"?>
<!-- Created with Inkscape (http://www.inkscape.org/) -->

<svg
   width="128"
   height="128"
   viewBox="0 0 33.866666 33.866666"
   version="1.1"
   id="svg5"
   inkscape:version="1.2.2 (b0a8486541, 2022-12-01)"
   sodipodi:docname="hive.svg"
   inkscape:export-filename="hive.png"
   inkscape:export-xdpi="96"
   inkscape:export-ydpi="96"
   xmlns:inkscape="http://www.inkscape.org/namespaces/inkscape"
   xmlns:sodipodi="http://sodipodi.sourceforge.net/DTD/sodipodi-0.dtd"
   xmlns="http://www.w3.org/2000/svg"
   xmlns:svg="http://www.w3.org/2000/svg">
  <sodipodi:namedview
     id="namedview7"
     pagecolor="#ffffff"
     bordercolor="#666666"
     borderopacity="1.0"
     inkscape:showpageshadow="2"
     inkscape:pageopacity="0.0"
     inkscape:pagecheckerboard="0"
     inkscape:deskcolor="#d1d1d1"
     inkscape:document-units="px"
     showgrid="true"
     inkscape:zoom="3.9554574"
     inkscape:cx="131.59034"
     inkscape:cy="85.451558"
     inkscape:window-width="1920"
     inkscape:window-height="1015"
     inkscape:window-x="0"
     inkscape:window-y="0"
     inkscape:window-maximized="1"
     inkscape:current-layer="layer1">
    <inkscape:grid
       type="xygrid"
       id="grid9"
       originx="0"
       originy="0"
       empspacing="4" />
  </sodipodi:namedview>
  <defs
     id="defs2" />
  <g
     inkscape:label="Layer 1"
     inkscape:groupmode="layer"
     id="layer1">
    <g
       id="g1803">
      <path
         style="fill:#fff6d5;stroke:#ffffff;stroke-width:0.264583px;stroke-linecap:butt;stroke-linejoin:miter;stroke-opacity:1"
         d="M 4.2333333,10.583333 V 7.4083332 L 16.933333,3.175 l 12.7,4.2333332 v 3.1749998 z"
         id="path1461" />
      <path
         id="path451"
         style="fill:#fff6d5;stroke:#000000;stroke-width:1.05833;stroke-linecap:round;stroke-linejoin:round;stroke-dasharray:none;stroke-opacity:1"
         d="m 4.2333332,7.6729165 0,21.9604165 H 29.633333 l 0,-21.9604165"
         sodipodi:nodetypes="cccc" />
      <path
         style="fill:#000000;stroke:#000000;stroke-width:1.05833331;stroke-linecap:butt;stroke-linejoin:round;stroke-opacity:1;stroke-dasharray:none"
         d="m 6.3499999,29.633333 v 3.175 h 2.1166667 l 2.1166664,-3.175"
         id="path1131" />
      <path
         style="fill:#000000;stroke:#000000;stroke-width:1.05833;stroke-linecap:butt;stroke-linejoin:round;stroke-dasharray:none;stroke-opacity:1"
         d="m 27.516666,29.633333 v 3.175 h -2.116667 l -2.116666,-3.175"
         id="path1131-3" />
      <path
         style="fill:none;stroke:#000000;stroke-width:1.05833;stroke-linecap:round;stroke-linejoin:miter;stroke-dasharray:none;stroke-opacity:1"
         d="m 13.758331,23.283333 h 6.350004"
         id="path1170-6" />
      <path
         style="fill:none;stroke:#000000;stroke-width:1.05833;stroke-linecap:round;stroke-linejoin:miter;stroke-dasharray:none;stroke-opacity:1"
         d="m 13.758329,19.05 h 6.350004"
         id="path1170-6-7" />
      <path
         style="fill:none;stroke:#000000;stroke-width:1.05833;stroke-linecap:round;stroke-linejoin:miter;stroke-dasharray:none;stroke-opacity:1"
         d="m 13.758331,14.816667 h 6.350004"
         id="path1170-6-7-3" />
      <path
         style="fill:none;stroke:#000000;stroke-width:1.05833;stroke-linecap:round;stroke-linejoin:miter;stroke-dasharray:none;stroke-opacity:1"
         d="m 13.758331,10.583333 h 6.350004"
         id="path1170-6-7-2" />
      <path
         id="path1310"
         style="fill:none;stroke:#000000;stroke-width:1.05833331;stroke-linecap:round;stroke-linejoin:round;stroke-opacity:1;stroke-dasharray:none"
         d="m 9.5249999,25.4 v 1.058333 H 24.341666 V 25.4"
         sodipodi:nodetypes="cccc" />
      <path
         style="fill:#000000;stroke:#000000;stroke-width:1.05833331;stroke-linecap:round;stroke-linejoin:round;stroke-opacity:1;fill-opacity:1;stroke-dasharray:none"
         d="M 16.933333,1.0583333 2.1166666,6.3499999 V 8.4666665 L 16.933333,3.1749999 31.749999,8.4666665 31.75,6.3499999 Z"
         id="path243"
         sodipodi:nodetypes="ccccccc" />
    </g>
    <g
       id="g1871-6-5"
       transform="rotate(-74.953505,19.092618,30.212666)">
      <path
         style="fill:none;stroke:#000000;stroke-width:0.264583px;stroke-linecap:round;stroke-linejoin:miter;stroke-opacity:1"
         d="m 23.283333,22.225 0.79375,-0.79375"
         id="path1865-1-4"
         sodipodi:nodetypes="cc" />
      <path
         style="fill:none;stroke:#000000;stroke-width:0.264583px;stroke-linecap:round;stroke-linejoin:miter;stroke-opacity:1"
         d="M 23.283333,21.695833 23.8125,22.225"
         id="path1867-5-7"
         sodipodi:nodetypes="cc" />
    </g>
    <g
       id="g1871-6-6"
       transform="rotate(-74.953556,16.826429,30.667022)">
      <path
         style="fill:none;stroke:#000000;stroke-width:0.264583px;stroke-linecap:round;stroke-linejoin:miter;stroke-opacity:1"
         d="m 23.283333,22.225 0.79375,-0.79375"
         id="path1865-1-5"
         sodipodi:nodetypes="cc" />
      <path
         style="fill:none;stroke:#000000;stroke-width:0.264583px;stroke-linecap:round;stroke-linejoin:miter;stroke-opacity:1"
         d="M 23.283333,21.695833 23.8125,22.225"
         id="path1867-5-6"
         sodipodi:nodetypes="cc" />
    </g>
    <g
       id="g1871">
      <path
         style="fill:none;stroke:#000000;stroke-width:0.264583px;stroke-linecap:round;stroke-linejoin:miter;stroke-opacity:1"
         d="m 23.283333,22.225 0.79375,-0.79375"
         id="path1865"
         sodipodi:nodetypes="cc" />
      <path
         style="fill:none;stroke:#000000;stroke-width:0.264583px;stroke-linecap:round;stroke-linejoin:miter;stroke-opacity:1"
         d="M 23.283333,21.695833 23.8125,22.225"
         id="path1867"
         sodipodi:nodetypes="cc" />
    </g>
    <g
       id="g1871-3"
       transform="rotate(31.366933,20.551494,22.452438)">
      <path
         style="fill:none;stroke:#000000;stroke-width:0.264583px;stroke-linecap:round;stroke-linejoin:miter;stroke-opacity:1"
         d="m 23.283333,22.225 0.79375,-0.79375"
         id="path1865-2"
         sodipodi:nodetypes="cc" />
      <path
         style="fill:none;stroke:#000000;stroke-width:0.264583px;stroke-linecap:round;stroke-linejoin:miter;stroke-opacity:1"
         d="M 23.283333,21.695833 23.8125,22.225"
         id="path1867-0"
         sodipodi:nodetypes="cc" />
    </g>
    <g
       id="g1871-6"
       transform="rotate(58.632978,19.485019,21.530968)">
      <path
         style="fill:none;stroke:#000000;stroke-width:0.264583px;stroke-linecap:round;stroke-linejoin:miter;stroke-opacity:1"
         d="m 23.283333,22.225 0.79375,-0.79375"
         id="path1865-1"
         sodipodi:nodetypes="cc" />
      <path
         style="fill:none;stroke:#000000;stroke-width:0.264583px;stroke-linecap:round;stroke-linejoin:miter;stroke-opacity:1"
         d="M 23.283333,21.695833 23.8125,22.225"
         id="path1867-5"
         sodipodi:nodetypes="cc" />
    </g>
  </g>
</svg>
