<?xml version="1.0" encoding="UTF-8" standalone="no"?>
<!-- Created with Inkscape (http://www.inkscape.org/) -->

<svg
   width="128"
   height="128"
   viewBox="0 0 33.866666 33.866666"
   version="1.1"
   id="svg5"
   inkscape:version="1.2.2 (b0a8486541, 2022-12-01)"
   sodipodi:docname="plus.svg"
   inkscape:export-filename="plus.png"
   inkscape:export-xdpi="96"
   inkscape:export-ydpi="96"
   xmlns:inkscape="http://www.inkscape.org/namespaces/inkscape"
   xmlns:sodipodi="http://sodipodi.sourceforge.net/DTD/sodipodi-0.dtd"
   xmlns="http://www.w3.org/2000/svg"
   xmlns:svg="http://www.w3.org/2000/svg">
  <sodipodi:namedview
     id="namedview7"
     pagecolor="#b6b6b6"
     bordercolor="#666666"
     borderopacity="1.0"
     inkscape:showpageshadow="2"
     inkscape:pageopacity="0"
     inkscape:pagecheckerboard="0"
     inkscape:deskcolor="#d1d1d1"
     inkscape:document-units="px"
     showgrid="true"
     inkscape:zoom="8.3594887"
     inkscape:cx="80.926002"
     inkscape:cy="40.552719"
     inkscape:window-width="1920"
     inkscape:window-height="1015"
     inkscape:window-x="0"
     inkscape:window-y="0"
     inkscape:window-maximized="1"
     inkscape:current-layer="layer1"
     showguides="false">
    <inkscape:grid
       type="xygrid"
       id="grid9"
       originx="0"
       originy="0"
       empspacing="4" />
  </sodipodi:namedview>
  <defs
     id="defs2" />
  <g
     inkscape:label="Layer 1"
     inkscape:groupmode="layer"
     id="layer1">
    <path
       id="rect2519"
       style="fill:#000000;fill-opacity:1;stroke:#fefefe;stroke-width:0.542761;stroke-linecap:square;stroke-linejoin:miter;stroke-dasharray:none;stroke-opacity:1;stop-color:#000000"
       d="M 23.01875 2.38125 C 22.725591 2.38125 22.489583 2.6172586 22.489583 2.9104166 L 22.489583 8.7312498 L 16.66875 8.7312498 C 16.375592 8.7312498 16.139583 8.9672588 16.139583 9.2604165 L 16.139583 10.847916 C 16.139583 11.141074 16.375592 11.377083 16.66875 11.377083 L 22.489583 11.377083 L 22.489583 17.197916 C 22.489583 17.491074 22.725591 17.727083 23.01875 17.727083 L 24.60625 17.727083 C 24.899408 17.727083 25.135416 17.491074 25.135416 17.197916 L 25.135416 11.377083 L 30.956249 11.377083 C 31.249407 11.377083 31.485416 11.141074 31.485416 10.847916 L 31.485416 9.2604165 C 31.485416 8.9672588 31.249407 8.7312498 30.956249 8.7312498 L 25.135416 8.7312498 L 25.135416 2.9104166 C 25.135416 2.6172586 24.899408 2.38125 24.60625 2.38125 L 23.01875 2.38125 z " />
  </g>
</svg>
