<?xml version="1.0" encoding="UTF-8" standalone="no"?>
<!-- Created with Inkscape (http://www.inkscape.org/) -->

<svg
   width="128"
   height="128"
   viewBox="0 0 33.866666 33.866666"
   version="1.1"
   id="svg5"
   inkscape:version="1.2.2 (b0a8486541, 2022-12-01)"
   sodipodi:docname="queen_color.svg"
   inkscape:export-filename="queen_color.png"
   inkscape:export-xdpi="96"
   inkscape:export-ydpi="96"
   xml:space="preserve"
   xmlns:inkscape="http://www.inkscape.org/namespaces/inkscape"
   xmlns:sodipodi="http://sodipodi.sourceforge.net/DTD/sodipodi-0.dtd"
   xmlns="http://www.w3.org/2000/svg"
   xmlns:svg="http://www.w3.org/2000/svg"><sodipodi:namedview
     id="namedview7"
     pagecolor="#ffffff"
     bordercolor="#666666"
     borderopacity="1.0"
     inkscape:showpageshadow="2"
     inkscape:pageopacity="0.0"
     inkscape:pagecheckerboard="0"
     inkscape:deskcolor="#d1d1d1"
     inkscape:document-units="px"
     showgrid="true"
     inkscape:zoom="2.6146747"
     inkscape:cx="173.63537"
     inkscape:cy="105.36684"
     inkscape:window-width="1351"
     inkscape:window-height="930"
     inkscape:window-x="280"
     inkscape:window-y="40"
     inkscape:window-maximized="0"
     inkscape:current-layer="layer1"><inkscape:grid
       type="xygrid"
       id="grid9"
       originx="0"
       originy="0"
       empspacing="4" /></sodipodi:namedview><defs
     id="defs2" /><g
     inkscape:label="Layer 1"
     inkscape:groupmode="layer"
     id="layer1"><path
       style="fill:#cccccc;stroke:#000000;stroke-width:0.264583px;stroke-linecap:butt;stroke-linejoin:miter;stroke-opacity:1"
       d="m 13.758333,11.641667 c 0.07064,-0.09831 0.151889,-0.189802 0.211913,-0.294928 0.07444,-0.130367 0.09611,-0.287987 0.138772,-0.430198 0.02297,-0.07655 0.05363,-0.147959 0.08326,-0.222035 0.0054,-0.01358 0.0093,-0.02776 0.01388,-0.04163 0.01388,-0.03701 0.02696,-0.07432 0.04163,-0.11102 0.08037,-0.200927 0.188157,-0.386186 0.277547,-0.5828452 0.02062,-0.045356 0.03588,-0.092981 0.05551,-0.1387742 0.0081,-0.019016 0.02121,-0.035883 0.02775,-0.055508 0.02983,-0.089486 0.04648,-0.1859235 0.06939,-0.2775463 0.02303,-0.092128 0.04209,-0.1865725 0.06939,-0.2775476 0.02097,-0.069905 0.05019,-0.1377503 0.06939,-0.2081591 0.01004,-0.036801 0.01569,-0.074831 0.02775,-0.1110192 0.0065,-0.019627 0.01895,-0.036791 0.02776,-0.055509 0.0282,-0.059927 0.05756,-0.1193644 0.08326,-0.1804051 0.02838,-0.067408 0.04288,-0.1399937 0.06939,-0.2081604 0.03876,-0.099673 0.09101,-0.1959022 0.138774,-0.2914227 0.02775,-0.055509 0.05384,-0.1118854 0.08326,-0.1665287 0.02258,-0.041932 0.04351,-0.084911 0.06939,-0.1248952 0.06227,-0.096234 0.139318,-0.1857571 0.20816,-0.2775464 0.06915,-0.092204 0.14117,-0.18376 0.20816,-0.2775463 0.01939,-0.027144 0.03529,-0.056731 0.05551,-0.083264 0.05385,-0.070681 0.111372,-0.1384914 0.166527,-0.2081604 0.196399,-0.2480832 -0.0059,0.0082 0.20816,-0.291424 0.0076,-0.010647 0.01924,-0.01782 0.02775,-0.027754 0.01928,-0.02249 0.03809,-0.045433 0.05551,-0.069387 0.01962,-0.026977 0.03503,-0.056933 0.05551,-0.083264 0.01205,-0.015491 0.02859,-0.026964 0.04163,-0.041632 0.024,-0.027003 0.04626,-0.055509 0.06939,-0.083264 0.02775,-0.027755 0.05719,-0.053927 0.08327,-0.083264 0.01108,-0.012465 0.0185,-0.027755 0.02775,-0.041632 0.02313,-0.027755 0.04498,-0.056632 0.06939,-0.083265 0.02652,-0.028934 0.05655,-0.054501 0.08326,-0.083264 0.08203,-0.088343 0.159283,-0.1832158 0.249791,-0.2636687 0.08405,-0.074711 0.184365,-0.1321612 0.277547,-0.1942827 0.09034,-0.060225 0.180378,-0.1318213 0.277546,-0.1804049 0.03925,-0.019627 0.08394,-0.025879 0.124896,-0.041632 0.03288,-0.012647 0.06403,-0.029593 0.09714,-0.041632 0.08817,-0.032061 0.186869,-0.045524 0.277546,-0.069387 0.143291,-0.037708 0.286447,-0.07508 0.430196,-0.1110175 0.07401,-0.018502 0.149663,-0.031384 0.222038,-0.05551 0.01962,-0.00654 0.03607,-0.020685 0.05551,-0.027755 0.03165,-0.011509 0.06549,-0.016245 0.09714,-0.027754 0.01944,-0.00707 0.03603,-0.020794 0.05551,-0.027755 0.04518,-0.016147 0.09174,-0.028182 0.137872,-0.04136 0.01834,-0.00524 0.03804,-0.00623 0.05551,-0.013877 1.24e-4,-5.43e-5 0.172656,-0.086328 0.222038,-0.1110189 0.188982,-0.094492 0.380039,-0.1830806 0.568971,-0.2775464 0.110269,-0.055135 0.219299,-0.1191294 0.333054,-0.1665274 0.228122,-0.09505 -0.0059,0.00658 0.222038,-0.069387 0.01962,-0.00654 0.03641,-0.019799 0.05551,-0.027754 0.09067,-0.037777 0.183786,-0.069013 0.277547,-0.097141 0.12591,-0.037774 0.249953,-0.083317 0.374687,-0.1248955 0.02776,-0.00925 0.05551,-0.018505 0.08326,-0.027755 0.01388,-0.00462 0.02709,-0.012261 0.04163,-0.013877 0.05321,-0.00591 0.112469,0 0.166527,0 0.138646,0 0.277292,0 0.415937,0 0.09252,0 0.185034,0 0.277552,0 0.02775,0 0.05693,-0.00878 0.08327,0 0.03925,0.013084 0.0711,0.044622 0.111016,0.055508 0.03156,0.00861 0.06559,0.00527 0.09714,0.013877 0.04895,0.013351 0.09056,0.053316 0.138774,0.069387 0.01809,0.00603 0.03765,0.00718 0.05551,0.013877 0.04892,0.018346 0.148261,0.069177 0.190224,0.095112 0.02972,0.018367 0.187443,0.1360773 0.20816,0.1526508 0.03065,0.024519 0.05311,0.058136 0.08326,0.083264 0.0079,0.00662 0.01942,0.00776 0.02775,0.013877 0.03007,0.022072 0.111363,0.1056378 0.134556,0.134557 0.01002,0.012494 0.02287,0.024408 0.02666,0.039967 0.0087,0.035814 0,0.1920735 0,0.2359144 0,0.064761 0,0.129522 0,0.1942828 0,0.041632 -0.0046,0.083518 0,0.1248955 0.0076,0.068255 0.02382,0.1384654 0.01388,0.2079895 -0.0081,0.056531 -0.03976,0.111406 -0.05551,0.1665287 -2.91e-4,9.79e-4 -0.02732,0.1095354 -0.02775,0.1106885 -0.03173,0.084438 -0.02759,0.025175 -0.02759,0.082935 0,0.1271259 -0.009,0.2634668 0,0.3887573 0.0017,0.023527 0.01127,0.045944 0.01388,0.069387 0.002,0.018389 -0.0023,0.037148 0,0.055508 0.0024,0.018926 0.01151,0.036584 0.01388,0.055509 0.0034,0.02754 -0.0046,0.055887 0,0.083264 0.0031,0.018812 0.01151,0.036584 0.01388,0.055509 0.0023,0.018359 -0.003,0.037258 0,0.05551 0.0017,0.010202 0.01217,0.017552 0.01388,0.027754 0.0076,0.045584 -0.0051,0.092713 0,0.1386459 0.0016,0.014539 0.01226,0.027093 0.01388,0.041632 0.0031,0.027585 0,0.05551 0,0.083265 0,0.08789 0,0.1757791 0,0.2636687 0,0.1989079 0,0.3978161 0,0.5967243 0,0.087385 -0.0058,0.1763824 0,0.26367 0.0037,0.055578 0.01079,0.1109115 0.01388,0.1665272 0.0074,0.1331674 0,0.2690682 0,0.4024418 0,0.1017672 0.006,0.2037101 0,0.3053016 -0.0024,0.041294 -0.03575,0.1831703 -0.04163,0.2081591 -0.02676,0.1137084 -0.06024,0.222341 -0.09714,0.3330559 -0.05717,0.1714979 -0.10553,0.348742 -0.180405,0.5134618 -0.02568,0.0565 -0.0567,0.110441 -0.08326,0.166528 -0.02393,0.05051 -0.04323,0.103252 -0.06939,0.152649 -0.01561,0.02948 -0.04059,0.05343 -0.05551,0.08326 -0.150735,0.301471 0.162144,-0.22398 -0.09714,0.20816 -0.01716,0.0286 -0.03803,0.05486 -0.05551,0.08326 -0.01955,0.03176 -0.03549,0.06568 -0.05551,0.09714 -0.05364,0.0843 -0.116665,0.162531 -0.166528,0.249791 -0.22798,0.398968 -0.01713,0.044 -0.277546,0.471829 -0.01402,0.02304 -0.02568,0.04764 -0.04163,0.06939 -0.101389,0.138258 -0.215874,0.277446 -0.333057,0.40244 -0.06562,0.06999 -0.146748,0.134466 -0.208161,0.208161 -0.02135,0.02562 -0.03503,0.05693 -0.05551,0.08326 -0.03615,0.04647 -0.08326,0.08326 -0.124897,0.124897 -0.05551,0.05551 -0.114012,0.108177 -0.166527,0.166527 -0.01547,0.01719 -0.02528,0.03915 -0.04163,0.05551 -0.03016,0.03016 -0.06594,0.05419 -0.09714,0.08327 -0.06083,0.0567 -0.112921,0.122684 -0.176401,0.176398 -0.12336,0.104383 -0.263124,0.189504 -0.388565,0.291424 -0.399475,0.324571 0.306968,-0.223326 -0.305302,0.249793 -0.09134,0.07058 -0.188206,0.135062 -0.277546,0.208158 -0.08701,0.07119 -0.173658,0.140654 -0.263669,0.208161 -0.08077,0.06058 -0.133267,0.104852 -0.222038,0.152652 -0.0658,0.03543 -0.138772,0.05551 -0.208158,0.08326 -0.09251,0.03701 -0.185031,0.07401 -0.277546,0.111017 -0.02313,0.0093 -0.04626,0.01851 -0.06939,0.02776 -0.04626,0.0185 -0.09251,0.03701 -0.138772,0.05551 -0.06939,0.02776 -0.136465,0.06218 -0.208161,0.08326 -0.112763,0.03317 -0.192481,0.04682 -0.305301,0.06939 -0.02313,0.0046 -0.04701,0.0064 -0.06939,0.01388 -0.08475,0.02825 -0.167325,0.06278 -0.249791,0.09714 -0.152403,0.0635 -0.292791,0.155849 -0.444074,0.222036 -0.09483,0.04149 -0.194452,0.06142 -0.291424,0.09714 -0.04675,0.01722 -0.09151,0.03976 -0.138774,0.05551 -0.234241,0.07808 -0.182546,0.05597 -0.374688,0.09714 -0.08855,0.01898 -0.177135,0.04276 -0.263669,0.06939 -0.02796,0.0086 -0.05488,0.02066 -0.08326,0.02776 -0.0359,0.009 -0.07401,0 -0.111019,0 -0.05551,0 -0.111018,0 -0.166528,0 -0.0912,0 -0.186781,0.0083 -0.277546,0 -0.09586,-0.0087 -0.184666,-0.03229 -0.277546,-0.05551 -4.1e-5,-1e-5 -0.221998,-0.0555 -0.222038,-0.05551 -0.01962,-0.0065 -0.03701,-0.0185 -0.05551,-0.02776 -0.05551,-0.02775 -0.112436,-0.05284 -0.166527,-0.08326 -0.09644,-0.05425 -0.185908,-0.158149 -0.263671,-0.235913 -0.04163,-0.04163 -0.08761,-0.07933 -0.124894,-0.124897 -0.05858,-0.0716 -0.115209,-0.145061 -0.166528,-0.222038 -0.08769,-0.131528 -0.149916,-0.284586 -0.20816,-0.430196 -0.06251,-0.156286 -0.08139,-0.191653 -0.124897,-0.333057 -0.03356,-0.109077 -0.04718,-0.224816 -0.08326,-0.333055 -0.04917,-0.147512 -0.121976,-0.290822 -0.15265,-0.444074 -0.0084,-0.04204 0,-0.188438 0,-0.221873 0,-0.143399 0,-0.286797 0,-0.430196 0,-0.07864 0,-0.157277 0,-0.235916 0,-0.0315 0.0089,-0.08316 0,-0.110946 -0.01493,-0.04659 -0.03519,-0.09132 -0.05278,-0.136974 z"
       id="path4256" /><path
       style="fill:#ffcc00;stroke:none;stroke-width:0.264583px;stroke-linecap:butt;stroke-linejoin:miter;stroke-opacity:1"
       d="m 7.4083332,15.875 c 0.2984622,1.636234 -1.3757972,3.058816 -0.7253241,4.691176 0.5842036,1.332367 2.2463617,1.962516 3.5987389,1.511704 1.236104,-0.08936 2.505966,0.08806 3.708251,-0.27562 1.266122,-0.03402 2.563918,0.449041 3.803013,0.0066 1.509916,0.71708 3.097367,1.457551 4.806463,1.430934 1.534866,0.4791 2.884281,1.518662 4.519211,1.671722 0.435566,0.317568 1.487926,1.317106 1.462078,0.138416 0.487912,-1.426864 1.75852,-2.737406 1.3632,-4.348426 -0.652888,-1.39057 -1.084526,-2.901704 -1.997346,-4.157382 -0.242022,-1.248924 -1.636058,-1.665053 -2.737297,-1.775845 -0.99569,-0.261564 -1.932539,-0.830235 -2.998294,-0.725404 -1.483727,-0.04644 -2.835319,0.727454 -4.315209,0.696552 -0.899687,0.06266 -1.823488,-0.124571 -2.707028,0.05751 C 12.417493,15.777779 11.641666,15.875 8.0278573,15.653313 7.800348,15.6668 7.6483544,15.944505 7.4083332,15.875 Z"
       id="path4254"
       sodipodi:nodetypes="cccccccccccccccc" /><path
       style="fill:#000000;stroke-width:1"
       d="m 26.474518,28.013894 c -0.09416,-0.900901 -0.295048,-1.869408 -0.446413,-2.152234 -0.431734,-0.806704 -1.631673,-1.285396 -3.876834,-1.54659 -1.139177,-0.13253 -2.273626,-0.323334 -2.520998,-0.424011 -0.3401,-0.138419 -0.540864,0.03227 -0.823378,0.700064 -0.205486,0.485714 -0.617011,1.099833 -0.9145,1.364707 -0.53974,0.480566 -0.540123,0.479439 -0.180422,-0.529166 0.462118,-1.295787 0.5017,-3.078565 0.06512,-2.933036 -0.175215,0.0584 -0.41361,0.472948 -0.529765,0.921205 -0.201525,0.777713 -1.797806,2.456283 -2.335868,2.456283 -0.370412,0 -0.318829,-0.197972 0.261313,-1.0029 0.284175,-0.39429 0.590674,-1.028116 0.681106,-1.408499 0.130762,-0.55004 0.05422,-0.720426 -0.373967,-0.832398 -0.393573,-0.102923 -0.722784,0.100968 -1.22395,0.758031 -0.808128,1.059511 -1.928666,1.69608 -2.960177,1.68166 l -0.740743,-0.01035 0.816416,-0.355465 c 0.713173,-0.310512 2.331745,-1.987817 2.121293,-2.198267 -0.04237,-0.04237 -0.586831,0.102825 -1.20991,0.32266 -2.4278357,0.856591 -5.0378027,0.32095 -6.2069078,-1.27384 -0.8027921,-1.095094 -0.7171156,-3.004306 0.1967926,-4.385315 0.6911358,-1.044376 0.6951887,-1.074438 0.181887,-1.34915 -0.6326452,-0.338582 -1.8438185,0.199567 -2.5266475,1.12264 l -0.4414912,0.596824 0.1728041,-0.755164 c 0.2379404,-1.039812 0.8212723,-1.86859 1.6136933,-2.29268 0.5883367,-0.314868 0.8087632,-0.288663 1.8574133,0.22081 0.6673139,0.324205 1.6967529,0.578075 2.3440901,0.578075 0.7206491,0 1.3769331,0.18033 1.7470711,0.48005 l 0.592836,0.480049 -0.922802,-0.107733 c -1.09665,-0.128027 -2.8447399,0.67728 -3.4292677,1.579787 -1.071685,1.654678 -0.7641664,3.186044 0.7683902,3.826386 2.0359655,0.85068 4.9551625,-0.04265 6.1607975,-1.885325 l 0.661459,-1.010963 0.08586,1.027499 c 0.148561,1.777823 1.09901,2.378493 1.113126,0.703479 l 0.0084,-0.992187 0.640409,0.727604 c 0.767759,0.872302 0.77421,0.873096 1.42408,0.175543 1.140235,-1.223899 0.919334,-3.578746 -0.39175,-4.176117 -1.52967,-0.696965 -2.902128,-0.04061 -3.26104,1.559544 -0.125024,0.55739 -0.26153,0.763336 -0.346525,0.522801 -0.07713,-0.218281 -0.33496,-0.944499 -0.572947,-1.613816 -0.23799,-0.669316 -0.867924,-1.725392 -1.399854,-2.346833 l -0.967146,-1.129892 -1.9854688,0.12742 -1.985469,0.12742 1.173349,-0.589011 c 0.6453418,-0.323956 1.6104088,-0.6683 2.1445928,-0.765209 0.858683,-0.155779 1.061098,-0.08006 1.746555,0.653382 l 0.77531,0.82958 0.175307,-1.711088 c 0.507844,-4.9568533 3.090196,-7.5216699 7.864264,-7.8108728 l 2.007679,-0.1216207 0.34416,1.6217492 c 0.628242,2.9604172 0.06367,5.2969553 -1.733069,7.1725303 l -0.887119,0.926042 1.67794,-0.0873 c 2.996539,-0.155907 5.507437,1.463776 6.833518,4.408035 0.426091,0.946039 0.561234,1.796444 0.5768,3.629597 0.01916,2.257216 -0.03626,2.506789 -0.969531,4.365625 -0.544423,1.084349 -1.329333,2.375736 -1.744242,2.86975 l -0.754383,0.898205 z m 1.804175,-3.459059 c 0.223869,-0.432914 0.474168,-1.534242 0.556223,-2.447396 l 0.14919,-1.660281 -0.818213,1.439016 c -0.450017,0.791461 -0.992508,1.631611 -1.205532,1.867003 -0.340383,0.376118 -0.338058,0.498316 0.01921,1.008377 0.542888,0.775081 0.813702,0.731991 1.299128,-0.206719 z m -3.230354,-2.124332 c 1.451015,-1.141367 2.215341,-4.107412 1.525802,-5.921033 -0.263242,-0.69238 -1.048824,-1.306455 -2.055352,-1.606627 -0.584417,-0.174289 -0.585536,-0.168757 -0.168148,0.830196 0.588642,1.408822 0.382368,4.590495 -0.395684,6.103181 -0.552207,1.073595 -0.555805,1.124479 -0.07952,1.124479 0.274373,0 0.802177,-0.238588 1.172898,-0.530196 z m -3.836421,-0.597894 c 1.495698,-1.592099 1.834454,-4.378616 0.696688,-5.730775 -0.630383,-0.749168 -1.622171,-1.064543 -2.038499,-0.648216 -0.09121,0.09121 0.008,0.502018 0.220486,0.912903 0.509624,0.985506 0.490979,2.473007 -0.04992,3.982259 -0.685377,1.912382 -0.02148,2.753442 1.171245,1.483829 z M 18.599459,13.316265 C 21.827982,11.680249 23.193541,9.0381434 22.475782,5.8162859 22.282203,4.9473501 22.27631,4.9444746 21.048429,5.1199068 18.295411,5.5132417 16.168626,6.9923289 15.272644,9.1367173 15.066078,9.6311 14.831607,10.830384 14.751595,11.801793 l -0.145474,1.766198 0.808636,-1.179548 c 0.932495,-1.360219 3.364749,-3.9023864 4.120793,-4.3070089 0.377954,-0.2022747 0.30032,-0.00183 -0.291772,0.7533923 -0.852408,1.0872362 -3.264779,5.1133176 -3.264779,5.4486876 0,0.241795 0.863537,-0.07695 2.62046,-0.967249 z"
       id="path4250" /><path
       style="fill:#ffcc00;stroke:none;stroke-width:0.264583px;stroke-linecap:butt;stroke-linejoin:miter;stroke-opacity:1"
       d="M 5.8208333,11.90625 C 5.5485045,10.546562 4.3135651,9.5234637 3.1749999,8.4666665 3.9993866,8.8267095 4.689996,9.1430549 6.0854165,9.2604165 5.8208332,7.1437499 5.9142672,6.1153772 5.8208332,4.4979166 6.6551361,5.9225746 7.2820232,7.7901819 8.4666665,8.4666665 8.9399698,8.1999576 9.5155393,7.1298724 10.054166,6.3499999 9.921581,7.7562493 9.6801767,9.1505807 9.7895831,10.583333 8.3199215,10.504281 6.9872562,10.910706 5.8208333,11.90625 Z"
       id="path4252"
       sodipodi:nodetypes="cccccccc" /></g></svg>
